<svg id="Group_1042" data-name="Group 1042" xmlns="http://www.w3.org/2000/svg" viewBox="0 0 100 100">
  <defs>
    <style>
      .cls-1 {
        fill: #702283;
      }

      .cls-2 {
        fill: #d2c5e2;
      }

      .cls-3 {
        fill: #fff;
      }
    </style>
  </defs>
  <path id="Path_95" data-name="Path 95" class="cls-1" d="M83.651,43.083A40.426,40.426,0,1,1,43.226,2.8,40.336,40.336,0,0,1,83.651,43.083" transform="translate(7.129 7.094)"/>
  <path id="Path_96" data-name="Path 96" class="cls-2" d="M50.355,9.894A40.283,40.283,0,1,1,9.929,50.177,40.336,40.336,0,0,1,50.355,9.894m0-9.894a51.886,51.886,0,0,0-19.5,3.887A49.436,49.436,0,0,0,14.894,14.841,44.3,44.3,0,0,0,3.9,30.742a50.365,50.365,0,0,0,0,38.869,48.81,48.81,0,0,0,26.6,26.5,50.875,50.875,0,0,0,39.007,0,48.81,48.81,0,0,0,26.6-26.5,50.365,50.365,0,0,0,0-38.869A48.81,48.81,0,0,0,69.5,4.24,44.558,44.558,0,0,0,50.355,0" transform="translate(0 0)"/>
  <path id="Path_97" data-name="Path 97" class="cls-3" d="M18.048,6.8l3.191,22.261H15.565l-.355-3.887H13.083l-.355,3.887H6.7L9.537,6.8ZM15.211,21.288c-.355-2.473-.709-5.654-1.064-9.187a63.559,63.559,0,0,0-1.064,9.541h2.128Z" transform="translate(17.059 17.228)"/>
  <path id="Path_98" data-name="Path 98" class="cls-3" d="M11.6,6.8h9.574v4.594h-3.9v4.24H20.82v4.24H17.274v9.541H11.6Z" transform="translate(29.535 17.228)"/>
  <path id="Path_99" data-name="Path 99" class="cls-3" d="M15.1,6.8h9.929v4.594h-3.9v4.24h3.546v4.24H21.128v9.541H15.1Z" transform="translate(38.446 17.228)"/>
  <path id="Path_100" data-name="Path 100" class="cls-3" d="M18.7,6.8h9.929v4.594h-3.9v4.24h3.546v4.24H24.728v9.541H18.7Z" transform="translate(47.612 17.228)"/>
  <path id="Path_101" data-name="Path 101" class="cls-3" d="M21.7,15.1l3.191,22.261H18.865l-.355-3.887H16.383l-.355,3.887H10L12.837,15.1H21.7ZM18.511,29.588q-.532-3.71-1.064-9.541a63.56,63.56,0,0,0-1.064,9.541Z" transform="translate(25.461 38.257)"/>
  <path id="Path_102" data-name="Path 102" class="cls-3" d="M14.3,15.1h4.255c2.837,0,4.61,0,5.674.353a4.1,4.1,0,0,1,2.482,1.767q1.064,1.06,1.064,4.24a7.58,7.58,0,0,1-.709,3.534,2.765,2.765,0,0,1-2.482,1.06,17.322,17.322,0,0,1,2.482,1.06,2.675,2.675,0,0,1,.709,1.413v9.187H22.456v-7.42c0-1.06,0-1.767-.355-2.12s-.709-.353-1.418-.353V38.068H15.009V15.1Zm5.674,3.887v4.947c.709,0,1.064,0,1.418-.353.355,0,.355-.707.355-1.767v-1.06c0-.707,0-1.06-.355-1.413s-.709-.353-1.418-.353" transform="translate(36.409 38.257)"/>
  <rect id="Rectangle_275" data-name="Rectangle 275" class="cls-3" width="59.929" height="2.473" transform="translate(20.213 48.763)"/>
</svg>
