<svg id="Group_676" data-name="Group 676" xmlns="http://www.w3.org/2000/svg" xmlns:xlink="http://www.w3.org/1999/xlink" viewBox="0 0 51.541 50">
  <defs>
    <style>
      .cls-1 {
        clip-path: url(#clip-path);
      }

      .cls-2 {
        fill: #bcdcf5;
      }

      .cls-3 {
        fill: #88bce7;
      }
    </style>
    <clipPath id="clip-path">
      <rect id="Rectangle_536" data-name="Rectangle 536" width="48.459" height="49.829"/>
    </clipPath>
  </defs>
  <g id="Group_549" data-name="Group 549" transform="translate(3.082)">
    <g id="Group_527" data-name="Group 527" class="cls-1">
      <path id="Path_498" data-name="Path 498" class="cls-2" d="M32.1,4.1h0a2.568,2.568,0,0,0-3.082,0A2.636,2.636,0,0,0,27.3,1.535a2.521,2.521,0,0,0-2.911,1.027A2.364,2.364,0,0,0,22.678.337,2.665,2.665,0,0,0,19.6,1.878,2.665,2.665,0,0,0,21.137,4.96,2.123,2.123,0,0,0,23.706,4.1a2.575,2.575,0,0,0,1.712,2.4,2.622,2.622,0,0,0,2.226-.342,2.989,2.989,0,0,0,.685,2.055l.171.171a2.183,2.183,0,0,0-2.055,0A2.18,2.18,0,0,0,24.9,6.5a2.077,2.077,0,0,0-2.226.514,2.09,2.09,0,0,0-1.37-1.541,1.851,1.851,0,0,0-2.4,1.2,1.659,1.659,0,0,0-1.2-1.37,1.851,1.851,0,0,0-2.4,1.2,1.851,1.851,0,0,0,1.2,2.4A1.781,1.781,0,0,0,18.74,7.871a2.09,2.09,0,0,0,1.37,1.541A2.25,2.25,0,0,0,22.165,8.9a2.08,2.08,0,0,0,1.37,1.712,1.664,1.664,0,0,0,1.541-.171,1.944,1.944,0,0,0,.514,1.37,1.876,1.876,0,0,0-1.37,0,1.453,1.453,0,0,0-1.2-1.37,1.991,1.991,0,0,0-1.712.342,1.81,1.81,0,0,0-1.027-1.2,1.722,1.722,0,0,0-1.884.856,1.517,1.517,0,0,0-2.911,0v.514a1.085,1.085,0,0,0-.856-1.027,1.354,1.354,0,1,0-.856,2.568,1.413,1.413,0,0,0,1.712-.856v-.514a1.81,1.81,0,0,0,1.027,1.2,1.4,1.4,0,0,0,1.712-.685,1.544,1.544,0,0,0,1.027,1.027,1.642,1.642,0,0,0,1.541-.342,2.29,2.29,0,0,0,1.2,1.37,1.463,1.463,0,0,0,1.2,0,1.22,1.22,0,0,0,.514,1.027c.171.171.171.171.342.171a12.051,12.051,0,0,1,4.281,13.185A11.714,11.714,0,0,1,17.2,36.3V49.652A24.914,24.914,0,0,0,41,32.357,24.707,24.707,0,0,0,32.1,4.1" transform="translate(6.089 0.177)"/>
    </g>
    <g id="Group_528" data-name="Group 528" class="cls-1">
      <path id="Path_499" data-name="Path 499" class="cls-2" d="M2.26,12.607a.963.963,0,0,0,0,1.541.963.963,0,0,0,1.541,0,.963.963,0,0,0,0-1.541,1.278,1.278,0,0,0-1.541,0" transform="translate(-1.747 8.797)"/>
    </g>
    <g id="Group_529" data-name="Group 529" class="cls-1">
      <path id="Path_500" data-name="Path 500" class="cls-2" d="M5.107,12.982a.848.848,0,0,0,1.2,1.2.828.828,0,0,0,0-1.2c-.342-.171-.856-.342-1.2,0" transform="translate(0.373 9.107)"/>
    </g>
    <g id="Group_530" data-name="Group 530" class="cls-1">
      <path id="Path_501" data-name="Path 501" class="cls-2" d="M7.407,13.407a.642.642,0,0,0,0,1.027.642.642,0,0,0,1.027,0,.642.642,0,0,0,0-1.027c-.171-.342-.685-.342-1.027,0" transform="translate(2.011 9.367)"/>
    </g>
    <g id="Group_531" data-name="Group 531" class="cls-1">
      <path id="Path_502" data-name="Path 502" class="cls-2" d="M15.713,4.247a2.244,2.244,0,0,0,2.74-1.37,1.993,1.993,0,0,0-1.37-2.74,2.244,2.244,0,0,0-2.74,1.37,2.106,2.106,0,0,0,1.37,2.74" transform="translate(7.061 0.034)"/>
    </g>
    <g id="Group_532" data-name="Group 532" class="cls-1">
      <path id="Path_503" data-name="Path 503" class="cls-2" d="M12.445,4.581a1.734,1.734,0,0,0,3.253,1.2,1.781,1.781,0,0,0-1.027-2.226,1.646,1.646,0,0,0-2.226,1.027" transform="translate(5.706 2.44)"/>
    </g>
    <g id="Group_533" data-name="Group 533" class="cls-1">
      <path id="Path_504" data-name="Path 504" class="cls-2" d="M13.007,4.382a1.993,1.993,0,0,0,2.568-1.37A1.993,1.993,0,0,0,14.206.443a1.993,1.993,0,0,0-2.568,1.37,2.132,2.132,0,0,0,1.37,2.568" transform="translate(5.144 0.242)"/>
    </g>
    <g id="Group_534" data-name="Group 534" class="cls-1">
      <path id="Path_505" data-name="Path 505" class="cls-2" d="M10.545,5.272A1.624,1.624,0,1,0,12.6,4.245a1.534,1.534,0,0,0-2.055,1.027" transform="translate(4.353 2.947)"/>
    </g>
    <g id="Group_535" data-name="Group 535" class="cls-1">
      <path id="Path_506" data-name="Path 506" class="cls-2" d="M10.336,5.04a1.851,1.851,0,0,0,2.4-1.2,1.9,1.9,0,1,0-3.6-1.2,2,2,0,0,0,1.2,2.4" transform="translate(3.363 0.953)"/>
    </g>
    <g id="Group_536" data-name="Group 536" class="cls-1">
      <path id="Path_507" data-name="Path 507" class="cls-2" d="M13.159,6.418a1.247,1.247,0,0,0-.685,2.4,1.041,1.041,0,0,0,1.541-.685,1.5,1.5,0,0,0-.856-1.712" transform="translate(5.163 4.541)"/>
    </g>
    <g id="Group_537" data-name="Group 537" class="cls-1">
      <path id="Path_508" data-name="Path 508" class="cls-2" d="M9.574,8.058A1.722,1.722,0,0,0,11.458,7.2,1.722,1.722,0,0,0,10.6,5.318,1.477,1.477,0,0,0,8.718,6.345a1.413,1.413,0,0,0,.856,1.712" transform="translate(3.097 3.758)"/>
    </g>
    <g id="Group_538" data-name="Group 538" class="cls-1">
      <path id="Path_509" data-name="Path 509" class="cls-2" d="M7.972,6.238A2.071,2.071,0,0,0,10.2,5.04,1.738,1.738,0,0,0,9,2.814a1.761,1.761,0,0,0-2.055,1.2A1.781,1.781,0,0,0,7.972,6.238" transform="translate(1.788 1.981)"/>
    </g>
    <g id="Group_539" data-name="Group 539" class="cls-1">
      <path id="Path_510" data-name="Path 510" class="cls-2" d="M11.688,7.319a1.083,1.083,0,1,0,.685,1.37,1.259,1.259,0,0,0-.685-1.37" transform="translate(4.236 5.181)"/>
    </g>
    <g id="Group_540" data-name="Group 540" class="cls-1">
      <path id="Path_511" data-name="Path 511" class="cls-2" d="M8.83,6.818a1.5,1.5,0,0,0-1.712.856,1.5,1.5,0,0,0,.856,1.712A1.5,1.5,0,0,0,9.687,8.53,1.279,1.279,0,0,0,8.83,6.818" transform="translate(1.957 4.826)"/>
    </g>
    <g id="Group_541" data-name="Group 541" class="cls-1">
      <path id="Path_512" data-name="Path 512" class="cls-2" d="M5.945,7.827A1.624,1.624,0,1,0,6.973,4.745,1.6,1.6,0,0,0,4.918,5.772,1.747,1.747,0,0,0,5.945,7.827" transform="translate(0.39 3.303)"/>
    </g>
    <g id="Group_542" data-name="Group 542" class="cls-1">
      <path id="Path_513" data-name="Path 513" class="cls-2" d="M10.388,8.519a1.165,1.165,0,0,0-1.37.685,1.165,1.165,0,0,0,.685,1.37,1.165,1.165,0,0,0,1.37-.685,1.165,1.165,0,0,0-.685-1.37" transform="translate(3.31 6.036)"/>
    </g>
    <g id="Group_543" data-name="Group 543" class="cls-1">
      <path id="Path_514" data-name="Path 514" class="cls-2" d="M7.56,8.618a1.225,1.225,0,0,0-1.541.856,1.165,1.165,0,0,0,.685,1.37,1.286,1.286,0,0,0,1.541-.685A1.286,1.286,0,0,0,7.56,8.618" transform="translate(1.173 6.108)"/>
    </g>
    <g id="Group_544" data-name="Group 544" class="cls-1">
      <path id="Path_515" data-name="Path 515" class="cls-2" d="M9.317,9.919a.976.976,0,1,0,.685,1.2.974.974,0,0,0-.685-1.2" transform="translate(2.669 7.034)"/>
    </g>
    <g id="Group_545" data-name="Group 545" class="cls-1">
      <path id="Path_516" data-name="Path 516" class="cls-2" d="M5.13,7.145A1.279,1.279,0,0,0,3.418,8a1.413,1.413,0,0,0,.856,1.712,1.413,1.413,0,0,0,1.712-.856A1.182,1.182,0,0,0,5.13,7.145" transform="translate(-0.678 5.012)"/>
    </g>
    <g id="Group_546" data-name="Group 546" class="cls-1">
      <path id="Path_517" data-name="Path 517" class="cls-2" d="M6.588,10.719a1.165,1.165,0,0,0-1.37.685,1.165,1.165,0,0,0,.685,1.37,1.165,1.165,0,0,0,1.37-.685,1.082,1.082,0,0,0-.685-1.37" transform="translate(0.603 7.603)"/>
    </g>
    <g id="Group_547" data-name="Group 547" class="cls-1">
      <path id="Path_518" data-name="Path 518" class="cls-2" d="M3.959,9.718a1.247,1.247,0,1,0,.856,1.541,1.225,1.225,0,0,0-.856-1.541" transform="translate(-1.391 6.891)"/>
    </g>
    <g id="Group_548" data-name="Group 548" class="cls-1">
      <path id="Path_519" data-name="Path 519" class="cls-2" d="M8.546,11.519a.812.812,0,1,0,.514,1.027.718.718,0,0,0-.514-1.027" transform="translate(2.241 8.173)"/>
    </g>
  </g>
  <g id="Group_550" data-name="Group 550" transform="translate(0 27.568)">
    <path id="Path_520" data-name="Path 520" class="cls-3" d="M9.075,16.4V37.975H3.767V26.332A11.519,11.519,0,0,0,3.6,23.249c0-.342-.342-.514-.685-.685a7.783,7.783,0,0,0-2.4-.171H0V19.825A10,10,0,0,0,5.993,16.4Z" transform="translate(0 -15.886)"/>
    <path id="Path_521" data-name="Path 521" class="cls-3" d="M19.342,23.977v7.192a15.582,15.582,0,0,1-.342,3.6,5.787,5.787,0,0,1-1.027,2.055,3.409,3.409,0,0,1-2.055,1.37,7.1,7.1,0,0,1-2.74.342,8.631,8.631,0,0,1-3.253-.514,4.366,4.366,0,0,1-2.055-1.37,5.787,5.787,0,0,1-1.027-2.055A14.448,14.448,0,0,1,6.5,31.34V23.805a14.315,14.315,0,0,1,.514-4.452,4.6,4.6,0,0,1,2.055-2.4,8.163,8.163,0,0,1,3.767-.856,6.949,6.949,0,0,1,3.253.685c1.027.514,1.712.856,2.055,1.541a3.906,3.906,0,0,1,1.027,2.055A19.807,19.807,0,0,1,19.342,23.977Zm-5.308-1.884a6.52,6.52,0,0,0-.171-2.226.791.791,0,0,0-.856-.514.942.942,0,0,0-.856.514,7.111,7.111,0,0,0-.171,2.226V32.71a5.949,5.949,0,0,0,.171,2.226c.171.342.342.342.856.342a.791.791,0,0,0,.856-.514,5.909,5.909,0,0,0,.171-2.055Z" transform="translate(4.63 -16.1)"/>
  </g>
</svg>
