<svg xmlns="http://www.w3.org/2000/svg" viewBox="0 0 45 45">
  <defs>
    <style>
      .cls-1 {
        fill: #ffffff;
      }

      .cls-2, .cls-4 {
        fill: none;
      }

      .cls-2 {
        stroke: #ffffff;
      }

      .cls-3 {
        stroke: none;
      }
    </style>
  </defs>
  <g id="Group_658" data-name="Group 658" transform="translate(-17 -704)">
    <path id="Path_550" data-name="Path 550" class="cls-1" d="M24.036,14.33c.355.237.355.71.355,1.065a1.43,1.43,0,0,1-.829.829l-2.959.71.829,2.959a.955.955,0,0,1-.355,1.065c-.237.355-.71.355-1.065.355l-2.959-.829-.71,2.959a1.169,1.169,0,0,1-.829.829h-.355a1.075,1.075,0,0,1-.829-.355L12.2,21.787l-2.131,2.131c-.237.355-.71.355-1.065.355a1.43,1.43,0,0,1-.829-.829l-.71-2.959-3.078.829a.955.955,0,0,1-1.065-.355c-.355-.237-.355-.71-.355-1.065l.829-2.959-2.959-.71a1.169,1.169,0,0,1-.829-.829A.955.955,0,0,1,.362,14.33L2.493,12.2.362,10.068A1.135,1.135,0,0,1,.007,8.885a1.43,1.43,0,0,1,.829-.829l2.959-.71L2.966,4.387a.955.955,0,0,1,.355-1.065.955.955,0,0,1,1.065-.355l2.959.829L8.056.835A1.43,1.43,0,0,1,8.885.007.955.955,0,0,1,9.95.362l2.131,2.249L14.211.362A1.2,1.2,0,0,1,15.395.007a1.169,1.169,0,0,1,.829.829l.71,2.959,2.959-.829a.955.955,0,0,1,1.065.355.955.955,0,0,1,.355,1.065l-.829,2.959,2.959.71a1.169,1.169,0,0,1,.829.829.955.955,0,0,1-.355,1.065l-2.131,2.131Z" transform="translate(27.324 714.323)"/>
    <g id="Ellipse_42" data-name="Ellipse 42" class="cls-2" transform="translate(17 704)">
      <circle class="cls-3" cx="22.5" cy="22.5" r="22.5"/>
      <circle class="cls-4" cx="22.5" cy="22.5" r="22"/>
    </g>
  </g>
</svg>
