<svg id="Group_1124" data-name="Group 1124" xmlns="http://www.w3.org/2000/svg" viewBox="0 0 70 70">
  <defs>
    <style>
      .cls-1 {
        fill: #4db246;
      }

      .cls-2 {
        fill: #c2dab7;
      }

      .cls-3 {
        fill: #fff;
      }
    </style>
  </defs>
  <g id="Group_18" data-name="Group 18" transform="translate(0 0)">
    <path id="Path_42" data-name="Path 42" class="cls-1" d="M68.05,39.875A28.175,28.175,0,1,1,39.875,11.7,28.157,28.157,0,0,1,68.05,39.875Z" transform="translate(-4.875 -4.875)"/>
    <path id="Path_43" data-name="Path 43" class="cls-2" d="M35,6.825A28.175,28.175,0,1,1,6.825,35,28.157,28.157,0,0,1,35,6.825M35,0A35.21,35.21,0,0,0,21.35,2.742a34.2,34.2,0,0,0-11.142,7.525A35.451,35.451,0,0,0,2.683,21.408,35.738,35.738,0,0,0,0,35,35.211,35.211,0,0,0,2.742,48.65a34.2,34.2,0,0,0,7.525,11.142,35.451,35.451,0,0,0,11.142,7.525A35.738,35.738,0,0,0,35,70a35.211,35.211,0,0,0,13.65-2.742A34.974,34.974,0,0,0,67.258,48.592,34.712,34.712,0,0,0,70,35,35.009,35.009,0,0,0,48.65,2.683,36.256,36.256,0,0,0,35,0Z" transform="translate(0 0)"/>
  </g>
  <g id="Group_19" data-name="Group 19" transform="translate(17.092 22.925)">
    <path id="Path_44" data-name="Path 44" class="cls-3" d="M51.408,39.358l-2.45,21.467h-7c-.642-3.325-1.225-7.058-1.692-11.258-.233,1.808-.758,5.542-1.575,11.258H31.808L29.3,39.358h5.425l.583,7.467.583,7.233c.233-3.733.7-8.633,1.517-14.758h5.775c.058.642.292,2.975.583,7.058l.642,8.167q.438-7.788,1.575-15.225h5.425Z" transform="translate(-29.3 -39.3)"/>
    <path id="Path_45" data-name="Path 45" class="cls-3" d="M77.408,39.4l3.208,21.467H74.9l-.292-3.85H72.625l-.35,3.85H66.5L69.358,39.4h8.05ZM74.492,53.225c-.292-2.45-.583-5.425-.875-9.042-.583,4.083-.933,7.117-1.05,9.042Z" transform="translate(-44.8 -39.342)"/>
  </g>
</svg>
