<svg id="Group_1330" data-name="Group 1330" xmlns="http://www.w3.org/2000/svg" xmlns:xlink="http://www.w3.org/1999/xlink" viewBox="0 0 70 70">
  <defs>
    <style>
      .cls-1 {
        clip-path: url(#clip-path);
      }

      .cls-2 {
        fill: #999;
      }

      .cls-3 {
        fill: #cacaca;
      }

      .cls-4 {
        fill: #fff;
      }
    </style>
    <clipPath id="clip-path">
      <rect id="Rectangle_165" data-name="Rectangle 165" width="70" height="70"/>
    </clipPath>
  </defs>
  <g id="Group_23" data-name="Group 23">
    <g id="Group_21" data-name="Group 21" class="cls-1">
      <path id="Path_46" data-name="Path 46" class="cls-2" d="M68.05,39.875A28.175,28.175,0,1,1,39.875,11.7,28.157,28.157,0,0,1,68.05,39.875" transform="translate(-4.875 -4.875)"/>
    </g>
    <g id="Group_22" data-name="Group 22" class="cls-1">
      <path id="Path_47" data-name="Path 47" class="cls-3" d="M35,6.825A28.175,28.175,0,1,1,6.825,35,28.157,28.157,0,0,1,35,6.825M35,0A35.21,35.21,0,0,0,21.35,2.742a34.2,34.2,0,0,0-11.142,7.525A35.451,35.451,0,0,0,2.683,21.408,35.738,35.738,0,0,0,0,35,35.21,35.21,0,0,0,2.742,48.65a34.2,34.2,0,0,0,7.525,11.142,35.451,35.451,0,0,0,11.142,7.525A35.738,35.738,0,0,0,35,70a35.211,35.211,0,0,0,13.65-2.742,34.2,34.2,0,0,0,11.142-7.525,35.451,35.451,0,0,0,7.525-11.142A35.738,35.738,0,0,0,70,35,35.145,35.145,0,0,0,48.592,2.683,35.96,35.96,0,0,0,35,0" transform="translate(0 0)"/>
    </g>
  </g>
  <g id="Group_24" data-name="Group 24" transform="translate(20.942 23.742)">
    <path id="Path_48" data-name="Path 48" class="cls-4" d="M49.317,63.217H43.483V45.192h-1.75V63.158H35.9V40.7H49.375V63.217Z" transform="translate(-35.9 -40.7)"/>
    <path id="Path_49" data-name="Path 49" class="cls-4" d="M76.492,57.967a7.832,7.832,0,0,1-.642,3.617,2.944,2.944,0,0,1-1.983,1.4,23.128,23.128,0,0,1-4.2.292H62.9V40.7H74.333v3.908h-5.6V48.4h.875a23.041,23.041,0,0,1,4.083.292,3.4,3.4,0,0,1,2.1,1.4,6.46,6.46,0,0,1,.7,3.442Zm-5.833-.7V54a3.425,3.425,0,0,0-.292-1.75c-.175-.233-.758-.292-1.633-.292v7.408a2.981,2.981,0,0,0,1.517-.292A2.764,2.764,0,0,0,70.658,57.267Z" transform="translate(-47.15 -40.7)"/>
  </g>
</svg>
